итого 12
drwxr-xr-x 3 user user 4096 янв 25 22:52 .
drwxr-xr-x 5 user user 4096 янв 25 22:45 ..
drwxrwxrwx 2 user user 4096 янв 25 22:52 copy
-rwxrwxrwx 1 user user    0 янв 25 22:58 file.txt
copy
file.txt

cat file.txt | grep -i dog
